<?xml version="1.0" standalone="no"?>
<!DOCTYPE svg PUBLIC "-//W3C//DTD SVG 1.1//EN" "http://www.w3.org/Graphics/SVG/1.1/DTD/svg11.dtd" >
<svg xmlns="http://www.w3.org/2000/svg">
<metadata>Generated by IcoMoon</metadata>
<defs>
<font id="ghampani" horiz-adv-x="1024">
<font-face units-per-em="1024" ascent="960" descent="-64" />
<missing-glyph horiz-adv-x="1024" />
<glyph unicode="&#x20;" horiz-adv-x="512" d="" />
<glyph unicode="&#xe900;" glyph-name="developer" d="M913.768 144.956c-33.693 83.511-111.627 141.51-200.279 149.925-19.596 36.024-48.008 66.508-82.645 88.56-33.717 21.468-72.084 34.039-111.844 36.785v92.008h65.96c132.318 0 239.963 108.262 239.963 241.335v83.050c0 9.231-7.44 16.713-16.618 16.713h-82.577c-101.359 0-188.24-63.529-223.347-153.074-35.11 89.545-121.99 153.074-223.348 153.074h-82.577c-9.178 0-16.618-7.483-16.618-16.713v-83.050c0-133.074 107.647-241.335 239.963-241.335h65.962v-92.008c-39.76-2.746-78.125-15.319-111.844-36.785-34.638-22.053-63.052-52.535-82.645-88.56-88.653-8.415-166.588-66.414-200.28-149.925-9.675-23.98-6.826-51.175 7.618-72.747 14.615-21.828 38.94-34.859 65.063-34.859h677.412c26.124 0 50.448 13.030 65.063 34.859 14.445 21.573 17.294 48.767 7.619 72.747zM518.998 611.995c0 114.644 92.738 207.913 206.73 207.913h65.959v-66.337c0-114.642-92.738-207.91-206.728-207.91h-42.457l181.122 182.157c6.489 6.526 6.489 17.108 0 23.637-6.489 6.526-17.011 6.524-23.503 0l-181.122-182.161v42.7zM281.136 727.819l181.122-182.159h-42.457c-113.989 0-206.727 93.268-206.727 207.911v66.337h65.959c113.992 0 206.73-93.268 206.73-207.911v-42.7l-181.124 182.157c-6.489 6.526-17.009 6.524-23.503 0-6.489-6.526-6.489-17.108 0-23.636zM878.581 90.881c-8.556-12.776-22.222-20.105-37.495-20.105h-677.41c-15.273 0-28.941 7.329-37.497 20.105-8.38 12.517-9.98 27.648-4.389 41.509 30.078 74.55 101.057 125.511 180.829 129.827 5.982 0.324 11.329 3.86 13.992 9.257 35.293 71.495 106.476 115.909 185.77 115.909 70.028 0 133.711-34.657 171.952-91.998-17.233-1.176-34.243-4.186-50.753-9.011-8.813-2.576-13.883-11.849-11.321-20.713 2.113-7.307 8.747-12.054 15.95-12.054 1.533 0 3.097 0.216 4.645 0.668 18.739 5.477 38.241 8.254 57.958 8.254l11.327-0.315c79.772-4.316 150.751-55.276 180.829-129.827 5.593-13.859 3.995-28.99-4.389-41.507zM583.805 252.614c-4.964 7.763-15.247 10.006-22.965 5.014-2.739-1.773-5.484-3.629-8.157-5.518-7.51-5.307-9.318-15.732-4.043-23.282 3.235-4.632 8.382-7.106 13.611-7.106 3.301 0 6.634 0.986 9.54 3.041 2.304 1.63 4.669 3.229 7.030 4.756 7.719 4.991 9.95 15.331 4.985 23.095z" />
<glyph unicode="&#xe901;" glyph-name="energy" d="M473.293 0h-2.597c-5.193 1.317-10.387 6.586-10.387 13.172v362.217h-148.010c-5.193 0-9.088 2.634-11.685 6.586s-2.597 9.22 0 13.172l255.772 493.933c2.597 5.269 9.088 7.903 14.282 6.586s10.387-6.586 10.387-13.172v-362.217h148.010c5.193 0 9.088-2.634 11.685-6.586s2.597-9.22 0-13.172l-255.772-493.933c-2.597-3.951-6.492-6.586-11.685-6.586zM334.371 401.732h138.922c7.79 0 12.983-5.269 12.983-13.172v-321.385l220.717 426.758h-138.922c-7.79 0-12.983 5.269-12.983 13.172v321.385l-220.717-426.758z" />
<glyph unicode="&#xe902;" glyph-name="favourite-line" d="M947.305 611.906l-244.438 17.603c-5.105 0.409-9.598 3.48-11.436 8.392l-93.119 227.207c-12.865 31.318-41.863 50.763-75.762 50.763s-62.692-19.446-75.762-50.968l-93.324-227.412c-2.042-4.708-6.33-7.983-11.436-8.392l-244.030-17.603c-33.082-1.842-61.263-23.539-72.086-55.471-11.027-32.341-1.838-66.32 24.301-88.631l188.893-156.384c3.88-3.275 5.718-8.597 4.493-13.51l-57.587-236.213c-6.739-24.563-2.042-49.945 12.865-69.8 15.316-20.060 39.208-32.136 64.326-32.136 15.52 0 30.631 4.708 43.088 13.1l206.455 128.751c4.288 2.661 9.802 2.661 14.090 0l208.497-128.341c13.069-8.802 28.181-13.51 43.497-13.51 23.484 0 46.764 11.258 61.875 30.294 15.724 19.65 21.442 45.237 15.724 70.823l-57.791 236.827c-1.225 5.117 0.613 10.439 4.493 13.714l191.752 156.793c25.73 22.107 34.92 56.085 24.097 88.426-10.619 31.932-39.004 53.834-71.677 55.676zM963.029 506.49l-191.344-156.588c-18.787-15.352-27.364-40.733-21.442-64.478l57.791-236.418c3.063-13.919-2.451-23.539-6.126-28.043-5.718-7.164-14.295-11.667-22.871-11.667-5.309 0-10.619 1.638-16.337 5.527l-209.314 128.955c-10.006 6.141-21.442 9.416-33.286 9.416s-23.484-3.275-33.49-9.62l-207.272-129.16c-13.274-8.802-31.040-4.913-40.433 7.369-3.88 5.117-7.964 13.919-4.288 26.814l57.791 237.032c5.718 23.539-2.655 48.716-21.238 64.068l-188.485 156.179c-14.907 12.896-10.823 29.475-9.189 34.183s8.373 20.469 27.977 21.493l244.438 17.603c24.097 1.842 44.926 16.785 54.115 39.301l93.324 227.412c7.556 18.422 24.505 19.855 29.406 19.855s21.85-1.433 29.406-19.855l93.324-227.412c9.189-22.516 30.019-37.458 54.115-39.301l244.847-17.808c19.196-1.023 25.935-16.785 27.568-21.493 1.225-4.299 5.309-20.878-8.985-33.365z" />
<glyph unicode="&#xe903;" glyph-name="favourite" d="M981.833 500.497c18.896 18.416 25.567 45.444 17.416 70.568-8.17 25.125-29.45 43.060-55.594 46.866l-232.447 33.775c-9.9 1.442-18.454 7.651-22.876 16.628l-103.921 210.629c-11.668 23.664-35.352 38.37-61.745 38.37-26.374 0-50.057-14.706-61.726-38.37l-103.94-210.629c-4.421-8.977-12.995-15.186-22.895-16.628l-232.447-33.794c-26.124-3.787-47.404-21.722-55.574-46.847-8.151-25.125-1.48-52.153 17.416-70.568l168.184-163.936c7.17-6.997 10.457-17.070 8.766-26.913l-39.696-231.505c-4.46-26.009 6.017-51.787 27.374-67.32 21.338-15.552 49.115-17.57 72.51-5.248l207.88 109.303c8.862 4.652 19.435 4.652 28.297 0l207.899-109.303c10.15-5.344 21.146-7.978 32.084-7.978 14.206 0 28.354 4.441 40.426 13.226 21.357 15.532 31.834 41.311 27.374 67.32l-39.715 231.486c-1.692 9.862 1.596 19.915 8.766 26.913l168.184 163.955z" />
<glyph unicode="&#xe904;" glyph-name="filter" d="M957.407 858.739c-4.483 9.725-14.052 15.928-24.563 15.928h-841.687c-10.511 0-20.077-6.203-24.563-15.928-4.483-9.725-3.078-21.22 3.61-29.516l323.557-401.384v-370.113c0-9.61 4.855-18.535 12.836-23.601 4.374-2.774 9.338-4.174 14.32-4.174 4.117 0 8.248 0.959 12.057 2.889l181.792 92.158c9.237 4.681 15.081 14.306 15.095 24.849l0.355 277.981 323.575 401.399c6.691 8.292 8.1 19.791 3.617 29.512zM582.124 455.484c-4.001-4.962-6.195-11.195-6.202-17.632l-0.348-270.726-127.499-64.635v335.324c0 6.448-2.191 12.695-6.202 17.669l-293.131 363.636h726.513l-293.131-363.636z" />
<glyph unicode="&#xe905;" glyph-name="investment" d="M464.34 394.773c0 20.16 16.204 35.52 35.268 35.52h4.766v16.32c0 3.84 3.813 7.68 7.626 7.68s7.626-3.84 7.626-7.68v-16.32h23.83c3.813 0 7.626-2.88 7.626-7.68 0-3.84-3.813-7.68-7.626-7.68h-43.847c-11.438 0-20.017-9.6-20.017-20.16 0-11.52 9.532-20.16 20.017-20.16h23.83c19.064 0 35.268-16.32 35.268-35.52 0-20.16-16.204-35.52-35.268-35.52h-4.766v-16.32c0-3.84-3.813-7.68-7.626-7.68s-7.626 3.84-7.626 7.68v16.32h-25.736c-3.813 0-7.626 2.88-7.626 7.68 0 3.84 3.813 7.68 7.626 7.68h45.753c11.438 0 20.017 9.6 20.017 20.16 0 11.52-9.532 20.16-20.017 20.16h-24.783c-19.064 0.96-34.315 16.32-34.315 35.52zM859.915 674.133c7.626 0 14.298-4.8 14.298-9.6s-6.672-9.6-14.298-9.6h-695.83c-7.626 0-14.298 4.8-14.298 9.6s6.672 9.6 14.298 9.6h695.83zM817.021 731.733c7.626 0 14.298-4.8 14.298-9.6s-6.672-9.6-14.298-9.6h-610.043c-7.626 0-14.298 4.8-14.298 9.6s6.672 9.6 14.298 9.6h610.043zM510.774 209.609c87.571 0 158.561 71.497 158.561 159.693s-70.99 159.693-158.561 159.693c-87.571 0-158.561-71.497-158.561-159.693s70.99-159.693 158.561-159.693zM578.333 535.019c66.185-26.412 112.39-91.812 112.39-167.274 0-99.358-79.922-179.851-179.824-179.851-98.654 0-178.576 80.493-178.576 179.851 0 7.546 0 15.092 1.249 22.639 11.239 89.297 86.166 158.47 177.327 158.47 23.727 0 46.205-5.031 67.434-13.835zM759.83 491.733c10.529 0 19.064 8.596 19.064 19.2s-8.535 19.2-19.064 19.2c-10.529 0-19.064-8.596-19.064-19.2s8.535-19.2 19.064-19.2zM759.83 203.733c-10.529 0-19.064 8.596-19.064 19.2s8.535 19.2 19.064 19.2c10.529 0 19.064-8.596 19.064-19.2s-8.535-19.2-19.064-19.2zM264.17 491.733c-10.529 0-19.064 8.596-19.064 19.2s8.535 19.2 19.064 19.2c10.529 0 19.064-8.596 19.064-19.2s-8.535-19.2-19.064-19.2zM264.17 203.733c-10.529 0-19.064 8.596-19.064 19.2s8.535 19.2 19.064 19.2c10.529 0 19.064-8.596 19.064-19.2s-8.535-19.2-19.064-19.2zM558.706 340.053c0 19.2-16.204 35.52-35.268 35.52h-23.83c-11.438 0-20.017 8.64-20.017 20.16s9.532 20.16 20.017 20.16h43.847c3.813 0 7.626 3.84 7.626 7.68 0 4.8-3.813 7.68-7.626 7.68h-23.83v15.36c0 3.84-3.813 7.68-7.626 7.68s-7.626-3.84-7.626-7.68v-15.36h-4.766c-19.064 0-35.268-16.32-35.268-35.52s15.251-35.52 34.315-35.52v0h24.783c11.438 0 20.017-9.6 20.017-20.16 0-11.52-9.532-20.16-20.017-20.16h-45.753c-3.813 0-7.626-3.84-7.626-7.68s3.813-7.68 7.626-7.68h25.736v-16.32c0-3.84 3.813-7.68 7.626-7.68s7.626 3.84 7.626 7.68v16.32h4.766c19.064 0 35.268 15.36 35.268 35.52zM216.511 174.933h590.979c2.86 63.36 38.128 101.76 95.319 105.6v153.6c-61.957 5.76-92.46 65.28-95.319 124.8h-590.979c-2.86-62.4-38.128-101.76-95.319-105.6v-172.8c57.191-3.84 91.506-42.24 95.319-105.6zM197.447 578.133h629.106v-9.6c0-55.68 26.689-115.2 85.787-115.2h9.532v-192h-9.532c-74.349 0-85.787-60.48-85.787-96v-9.6h-629.106v9.6c0 35.52-11.438 96-85.787 96h-9.532v211.2h9.532c74.349 0 85.787 60.48 85.787 96v9.6zM940.936 155.733v422.4c0 10.56-8.579 19.2-19.064 19.2h-819.745c-10.485 0-19.064-8.64-19.064-19.2v-422.4c0-10.56 8.579-19.2 19.064-19.2h819.745c10.485 0 19.064 8.64 19.064 19.2zM960 578.133v-422.4c0-21.12-17.157-38.4-38.128-38.4h-819.745c-20.97 0-38.128 17.28-38.128 38.4v422.4c0 21.12 17.157 38.4 38.128 38.4h819.745c20.97 0 38.128-17.28 38.128-38.4zM262.264 770.133h500.426c6.672 0 11.438 3.84 11.438 9.6s-5.719 9.6-11.438 9.6h-500.426c-6.672 0-11.438-3.84-11.438-9.6s4.766-9.6 11.438-9.6z" />
<glyph unicode="&#xe906;" glyph-name="investor" d="M500.586 896c-240.735 0-436.586-196.969-436.586-439.080s195.85-439.080 436.586-439.080c240.735 0 436.586 196.969 436.586 439.080s-195.85 439.080-436.586 439.080zM500.586 61.1c-217.017 0-393.571 177.563-393.571 395.82s176.554 395.82 393.571 395.82c217.017 0 393.571-177.563 393.571-395.82s-176.554-395.82-393.571-395.82zM519.703 483.016v159.214c47.875-2.568 67.028-23.754 78.516-23.754s18.51 15.407 18.51 23.754c0 21.184-51.068 37.233-97.030 39.161v18.616c0 6.422-7.661 12.198-14.683 12.198-8.3 0-14.683-5.779-14.683-12.198v-19.901c-55.536-3.853-116.179-29.533-116.179-110.423 0-82.175 60.004-101.436 116.179-121.339v-186.822c-79.153 1.926-93.196 52.642-108.518 52.642-9.575 0-19.149-13.481-19.149-23.754 0-23.111 47.24-68.696 127.671-69.337v-23.107c0-6.419 6.385-12.196 14.683-12.196 7.022 0 14.683 5.777 14.683 12.196v25.039c63.833 8.347 108.518 48.149 108.518 125.832 0 87.952-55.534 114.915-108.518 134.177zM491.615 492.64c-41.492 14.767-77.238 30.816-77.24 80.892 0 47.508 37.026 64.841 77.24 68.051v-148.944zM517.79 262.803v175.264c38.3-16.050 69.577-37.233 69.579-93.089 0-47.506-24.897-75.111-69.579-82.175z" />
<glyph unicode="&#xe907;" glyph-name="project" d="M951.215 548.563h-67.317v51.558h-64.677v-51.558h-54.118v222.988c0 19.334-7.92 37.379-21.119 50.269s-31.679 20.623-51.478 20.623h-394.662v32.224h-68.637v-30.935h-105.595v-65.736c-21.119-5.156-38.278-23.201-38.278-46.402 0-21.912 15.839-41.246 38.278-45.113v-47.691c-21.119-3.867-38.278-21.912-38.278-45.113 0-21.912 15.839-41.246 38.278-45.113v-47.691c-21.119-3.867-38.278-23.201-38.278-45.113s15.839-41.246 38.278-45.113v-47.691c-21.119-3.867-38.278-23.201-38.278-45.113s15.839-41.246 38.278-45.113v-47.691c-21.119-5.156-38.278-23.201-38.278-46.402 0-21.912 15.839-41.246 38.278-45.113v-65.736h105.595v-30.935h68.637v30.935h393.342c19.799 0 38.278 7.734 51.478 20.623 14.519 14.178 21.119 30.935 21.119 50.269v36.090h186.112v373.794h1.32zM837.7 580.787h25.079v-58.003h-25.079v58.003zM105.132 731.594c0 11.601 7.92 21.912 18.479 25.779v-50.269c-10.56 3.867-18.479 12.889-18.479 24.49zM105.132 593.676c0 11.601 7.92 21.912 18.479 25.779v-50.269c-10.56 3.867-18.479 12.889-18.479 24.49zM105.132 455.759c0 11.601 7.92 21.912 18.479 25.779v-50.269c-10.56 2.578-18.479 12.889-18.479 24.49zM105.132 317.842c0 11.601 7.92 21.912 18.479 25.779v-50.269c-10.56 2.578-18.479 12.889-18.479 24.49zM105.132 178.636c0 11.601 7.92 21.912 18.479 25.779v-50.269c-10.56 3.867-18.479 12.889-18.479 24.49zM143.411 87.12v117.294c10.56-3.867 18.479-14.178 18.479-25.779h19.799c0 21.912-15.839 41.246-38.278 45.113v118.583c10.56-3.867 18.479-14.178 18.479-25.779h19.799c0 21.912-15.839 41.246-38.278 45.113v118.583c10.56-3.867 18.479-14.178 18.479-25.779h19.799c0 21.912-15.839 41.246-38.278 45.113v118.583c10.56-3.867 18.479-14.178 18.479-25.779h19.799c0 21.912-15.839 41.246-38.278 45.113v119.872c10.56-3.867 18.479-14.178 18.479-25.779h19.799c0 21.912-15.839 41.246-38.278 45.113v47.691h85.796v-737.277h-85.796zM278.045 56.186h-29.039v799.147h29.039v-799.147zM745.304 139.967c0-14.178-5.28-27.068-15.839-37.379s-23.759-15.467-38.278-15.467h-393.342v737.277h393.342c14.519 0 27.719-5.156 38.278-15.467s15.839-23.201 15.839-37.379v-222.988h-213.83v51.558h-64.677v-51.558h-67.317v-373.794h345.825v-34.802zM511.674 580.787v-58.003h-25.079v58.003h25.079zM931.415 194.103h-512.137v335.126h47.518v-25.779h64.677v25.779h287.747v-25.779h64.677v25.779h47.518v-335.126zM460.19 363.97h128.034v110.849h-128.034v-110.849zM479.99 455.485h88.436v-72.181h-88.436v72.181zM460.19 363.97h128.034v110.849h-128.034v-110.849zM479.99 455.485h88.436v-72.181h-88.436v72.181zM460.19 363.97h128.034v110.849h-128.034v-110.849zM479.99 455.485h88.436v-72.181h-88.436v72.181zM460.19 214.027h128.034v110.849h-128.034v-110.849zM479.99 305.542h88.436v-72.181h-88.436v72.181zM460.19 214.027h128.034v110.849h-128.034v-110.849zM479.99 305.542h88.436v-72.181h-88.436v72.181zM460.19 214.027h128.034v110.849h-128.034v-110.849zM479.99 305.542h88.436v-72.181h-88.436v72.181zM335.238 774.705h341.865v-19.948h-341.865v19.948zM385.219 699.733h285.107v-19.948h-285.107v19.948z" />
<glyph unicode="&#xe908;" glyph-name="roi" d="M887.529 643.309c12.256 10.742 13.444 29.366 2.681 41.57-5.249 5.955-10.728 11.792-16.472 17.473v0.014c0 0.015-0.027 0.015-0.027 0.015v0.029c-68.799 68.574-160.265 106.349-257.558 106.349-87.37 0-170.010-30.555-235.778-86.463l-50.046 49.881c-7.473 7.45-18.344 10.326-28.528 7.622-10.212-2.719-18.171-10.657-20.885-20.823l-51.252-190.727c-2.743-10.168 0.171-21.008 7.641-28.443 5.593-5.607 13.151-8.628 20.885-8.628 2.535 0 5.104 0.331 7.641 1.008l191.3 51.105c10.179 2.716 18.14 10.655 20.881 20.821 2.739 10.168-0.175 21.008-7.643 28.443l-48.114 47.984c54.488 44.879 122.301 69.325 193.896 69.325 81.517 0 158.153-31.663 215.818-89.138 0 0 0 0 0-0.015 0.029 0 0.029 0 0.029-0.014 4.811-4.791 9.403-9.707 13.847-14.711 5.827-6.628 13.989-10.007 22.183-10.007 6.92-0.002 13.903 2.414 19.5 7.33zM534.984 152.138c-13.18 3.625-26.243 8.17-38.796 13.5-14.997 6.356-32.365-0.59-38.767-15.541-6.4-14.97 0.578-32.271 15.61-38.642 14.97-6.369 30.546-11.792 46.292-16.105 2.627-0.718 5.247-1.062 7.845-1.062 12.953 0 24.864 8.584 28.472 21.652 4.326 15.678-4.937 31.897-20.656 36.197zM670.785 146.127c-13.44-2.414-27.17-3.969-40.812-4.568-16.297-0.721-28.905-14.483-28.181-30.733 0.693-15.802 13.756-28.139 29.477-28.139 0.435 0 0.894 0.014 1.331 0.031 16.297 0.733 32.68 2.57 48.717 5.462 16.064 2.905 26.713 18.219 23.799 34.222-2.887 16.005-18.35 26.687-34.331 23.726zM896.784 565.434c5.368-12.498 9.923-25.496 13.589-38.653 3.604-13.055 15.49-21.612 28.441-21.612 2.598 0 5.247 0.346 7.876 1.064 15.721 4.329 24.953 20.548 20.623 36.224-4.353 15.686-9.806 31.217-16.206 46.142-6.433 14.953-23.774 21.885-38.767 15.502-15.007-6.402-21.96-23.716-15.556-38.667zM795.686 199.389c-11.079-8.052-22.759-15.388-34.728-21.828-14.367-7.719-19.733-25.581-12.002-39.903 5.337-9.864 15.521-15.473 26.051-15.473 4.729 0 9.515 1.137 13.985 3.524 14.309 7.706 28.268 16.479 41.506 26.084 13.18 9.591 16.066 28.008 6.46 41.15-9.604 13.133-28.094 16.038-41.272 6.446zM925.115 313.461c-14.429 7.707-32.282 2.329-40.009-11.992-6.466-11.964-13.82-23.625-21.838-34.64-9.604-13.158-6.691-31.576 6.491-41.139 5.251-3.814 11.333-5.638 17.364-5.638 9.116 0 18.117 4.213 23.915 12.133 9.601 13.16 18.373 27.091 26.101 41.382 7.701 14.34 2.338 32.186-12.025 39.893zM951.878 460.23c-0.433 0.015-0.867 0.031-1.329 0.031-15.688 0-28.755-12.353-29.479-28.157-0.605-13.659-2.134-27.36-4.559-40.723-2.879-16.016 7.791-31.317 23.859-34.211 1.756-0.313 3.517-0.472 5.247-0.472 14.020 0 26.48 9.992 29.046 24.242 2.885 15.945 4.702 32.277 5.426 48.554 0.724 16.258-11.911 30.016-28.212 30.735zM400.339 230.364c-11.541 11.5-30.23 11.5-41.768 0-11.541-11.489-11.541-30.141 0-41.643 5.707-5.692 11.595-11.171 17.566-16.405 5.597-4.918 12.547-7.321 19.471-7.321 8.217 0 16.383 3.381 22.21 10.013 10.761 12.218 9.548 30.826-2.712 41.568-5.020 4.396-9.952 8.998-14.767 13.788zM234.719 495.288c45.929-18.328 77.993-63.713 77.993-116.080 0-68.95-55.462-124.808-124.789-124.808-68.461 0-123.923 55.858-123.923 124.808 0 5.237 0 10.473 0.867 15.71 7.799 61.968 59.795 109.971 123.056 109.971 16.465 0 32.064-3.491 46.796-9.601zM187.836 269.47c60.77 0 110.033 49.616 110.033 110.819s-49.264 110.819-110.033 110.819c-60.77 0-110.033-49.616-110.033-110.819s49.264-110.819 110.033-110.819zM221.099 359.992c0 13.324-11.245 24.649-24.474 24.649h-16.537c-7.938 0-13.891 5.996-13.891 13.99s6.615 13.99 13.891 13.99h30.428c2.646 0 5.292 2.665 5.292 5.33 0 3.331-2.646 5.33-5.292 5.33h-16.537v10.659c0 2.665-2.646 5.33-5.292 5.33s-5.292-2.665-5.292-5.33v-10.659h-3.307c-13.229 0-24.474-11.325-24.474-24.649s10.583-24.649 23.813-24.649v0h17.198c7.938 0 13.891-6.662 13.891-13.99 0-7.994-6.615-13.99-13.891-13.99h-31.75c-2.646 0-5.292-2.665-5.292-5.33s2.646-5.33 5.292-5.33h17.86v-11.325c0-2.665 2.646-5.33 5.292-5.33s5.292 2.665 5.292 5.33v11.325h3.307c13.229 0 24.474 10.659 24.474 24.649z" />
<glyph unicode="&#xe909;" glyph-name="share" d="M110.347 110.504c-1.368 9.286-30.311 232.443 99.458 386.004 79.724 94.358 202.743 146.016 361.592 151.13l0.847 155.137c0 10.669 6.095 20.369 15.605 24.957 9.54 4.505 20.826 3.207 28.998-3.538l354.406-294.132c6.341-5.252 10.030-13.1 10.058-21.391s-3.635-16.142-9.976-21.391l-354.431-296.928c-8.145-6.826-19.543-8.236-28.998-3.648-9.594 4.56-15.66 14.318-15.66 24.985l-0.847 158.62c-382.884 0.276-410.105-247.811-411.034-258.064-1.175-13.929-9.894-24.792-23.723-25.235-0.327-0.028-0.629-0.028-0.929-0.028-13.531 0.002-23.341 9.98-25.365 23.523zM618.844 417.958c5.139-5.197 8.036-12.215 8.036-19.567v-128.19l283.944 238.302-283.944 236.091v-124.181c0-15.285-12.218-27.638-27.33-27.638-155.513 0-274.323-45.549-348.063-132.004-55.454-65.061-80.956-144.69-89.673-210.774 59.691 82.473 164.206 175.866 437.708 176.032h0.055c7.215 0 14.156-2.904 19.268-8.071z" />
<glyph unicode="&#xe90a;" glyph-name="water" d="M505.443-15.076c-94.115 0-180.22 48.647-230.281 129.726-50.061 83.106-54.066 182.428-10.012 273.642 34.042 68.917 64.078 121.619 92.112 170.266 50.061 87.16 94.115 162.158 128.156 287.831l20.024 70.944 20.024-70.944c34.042-125.673 76.093-196.617 128.156-287.831 28.034-48.647 58.071-101.349 92.112-170.266 44.054-91.214 42.051-192.563-10.012-273.642-50.061-81.079-136.166-129.726-230.281-129.726zM505.443 771.391c-32.039-95.268-70.086-160.131-112.137-233.102-28.034-48.647-58.071-101.349-90.11-168.239-38.046-79.052-36.044-164.185 8.010-235.129 42.051-68.917 116.142-109.457 196.24-109.457s154.188 40.54 196.24 109.457c44.054 70.944 46.056 156.077 8.010 235.129-32.039 66.89-62.076 117.565-90.11 168.239-46.056 72.971-84.103 139.861-116.142 233.102z" />
<glyph unicode="&#xe90b;" glyph-name="done" d="M512 917.333c-258.783 0-469.333-210.532-469.333-469.333s210.55-469.333 469.333-469.333c258.783 0 469.333 210.532 469.333 469.333s-210.55 469.333-469.333 469.333zM773.653 604.523l-288.821-324.923c-7.112-7.997-17.022-12.112-27.005-12.112-7.925 0-15.885 2.599-22.546 7.906l-180.513 144.41c-15.56 12.437-18.087 35.164-5.632 50.742 12.437 15.578 35.182 18.105 50.742 5.65l153.743-122.983 266.058 299.308c13.214 14.91 36.066 16.246 50.959 2.997 14.91-13.268 16.264-36.085 3.015-50.995z" />
<glyph unicode="&#xe90c;" glyph-name="contact" d="M788.686 327.977c-18.772 19.547-41.415 29.997-65.413 29.997-23.804 0-46.641-10.257-66.187-29.804l-61.156-60.962c-5.032 2.709-10.064 5.225-14.902 7.741-6.967 3.484-13.547 6.774-19.159 10.257-57.285 36.384-109.345 83.799-159.275 145.148-24.191 30.578-40.448 56.317-52.253 82.444 15.869 14.515 30.578 29.61 44.899 44.125 5.419 5.419 10.838 11.031 16.257 16.45 40.641 40.641 40.641 93.282 0 133.923l-52.834 52.834c-5.999 5.999-12.192 12.192-17.998 18.385-11.612 11.999-23.804 24.385-36.384 35.997-18.772 18.579-41.222 28.449-64.833 28.449s-46.447-9.87-65.8-28.449c-0.194-0.194-0.194-0.194-0.387-0.387l-65.8-66.381c-24.772-24.772-38.9-54.963-41.996-89.992-4.645-56.511 11.999-109.151 24.772-143.599 31.352-84.573 78.186-162.952 148.051-246.945 84.766-101.216 186.757-181.144 303.262-237.462 44.512-21.095 103.926-46.060 170.307-50.318 4.064-0.194 8.322-0.387 12.192-0.387 44.705 0 82.25 16.063 111.667 47.995 0.194 0.387 0.581 0.581 0.774 0.968 10.064 12.192 21.675 23.224 33.868 35.029 8.322 7.935 16.837 16.257 25.159 24.965 19.159 19.934 29.223 43.157 29.223 66.961 0 23.998-10.257 47.028-29.804 66.381l-106.248 106.635zM857.969 124.19c-0.194 0-0.194-0.194 0 0-7.548-8.128-15.289-15.482-23.611-23.611-12.579-11.999-25.352-24.578-37.351-38.706-19.547-20.901-42.577-30.771-72.767-30.771-2.903 0-5.999 0-8.902 0.194-57.478 3.677-110.893 26.127-150.954 45.286-109.538 53.027-205.723 128.311-285.651 223.721-65.994 79.541-110.119 153.082-139.342 232.043-17.998 48.189-24.578 85.734-21.675 121.15 1.935 22.643 10.644 41.415 26.707 57.478l65.994 65.994c9.483 8.902 19.547 13.741 29.417 13.741 12.192 0 22.062-7.354 28.255-13.547 0.194-0.194 0.387-0.387 0.581-0.581 11.805-11.031 23.030-22.45 34.835-34.642 5.999-6.193 12.192-12.386 18.385-18.772l52.834-52.834c20.514-20.514 20.514-39.48 0-59.994-5.612-5.612-11.031-11.225-16.644-16.644-16.257-16.644-31.739-32.126-48.576-47.221-0.387-0.387-0.774-0.581-0.968-0.968-16.644-16.644-13.547-32.9-10.064-43.931 0.194-0.581 0.387-1.161 0.581-1.742 13.741-33.287 33.094-64.639 62.51-101.99l0.194-0.194c53.414-65.8 109.732-117.086 171.855-156.372 7.935-5.032 16.063-9.096 23.804-12.967 6.967-3.484 13.547-6.774 19.159-10.257 0.774-0.387 1.548-0.968 2.322-1.355 6.58-3.29 12.773-4.838 19.159-4.838 16.063 0 26.127 10.064 29.417 13.354l66.187 66.187c6.58 6.58 17.031 14.515 29.223 14.515 11.999 0 21.869-7.548 27.868-14.128l107.022-107.022c19.934-19.74 19.934-40.061 0.194-60.575zM979.893 491.51c2.516-14.128-7.161-27.675-21.288-29.804-1.548-0.194-2.903-0.387-4.451-0.387-12.579 0-23.611 8.902-25.74 21.675-15.289 90.185-57.866 172.435-123.279 237.849-65.413 65.22-147.664 107.99-237.849 123.279-14.321 2.516-23.804 15.869-21.482 30.191 2.516 14.128 15.869 23.804 29.997 21.288 101.023-17.224 192.95-64.833 266.104-137.987s120.763-165.081 137.987-266.104zM559.546 677.88c-14.321 2.322-23.611 16.063-21.095 30.191s15.869 23.611 30.191 21.288c61.349-10.451 117.279-39.48 161.598-83.799s73.348-100.249 83.799-161.598c2.322-14.321-7.161-27.868-21.482-30.191-1.548-0.194-2.903-0.387-4.451-0.387-12.579 0-23.611 8.902-25.74 21.675-8.709 50.705-32.513 96.765-69.284 133.536s-82.831 60.768-133.536 69.284z" />
</font></defs></svg>