"1","5","10","15","5"
"2","20","20","15","5"
"3","25","30","10","5"
"4","15","25","25","10"
"5","20","30","15","10"
"6","20","25","25","10"
"7","15","25","35","15"
"8","15","25","35","20"
"9","20","30","30","15"
"10","20","30","30","20"
"11","20","30","40","15"
"12","15","25","40","25"
"13","25","30","30","20"
"14","15","25","50","30"
"15","20","25","60","15"
"16","25","35","40","20"
"17","25","35","40","20"
"18","20","30","40","30"
"19","20","35","40","30"
"20","20","35","45","25"
"21","30","40","40","20"
"22","25","35","45","25"
"23","20","30","60","25"
"24","30","40","40","25"
"25","20","30","60","40"
"26","20","30","60","40"
"27","15","25","70","40"
"28","25","35","60","40"
"29","30","50","55","45"
"30","30","30","80","40"
